%!PS-Adobe-3.0 EPSF-3.0
%%Creator: MATLAB, The MathWorks, Inc. Version 8.2.0.701 (R2013b). Operating System: Linux 3.8.0-44-generic #66~precise1-Ubuntu SMP Tue Jul 15 04:01:04 UTC 2014 x86_64.
%%Title: /media/Transcend/DATA/drafts/2015/ARCH2015_Cora/figures/bouncingBall_singleSim_b.eps
%%CreationDate: 03/13/2015  15:02:37
%%DocumentNeededFonts: Helvetica
%%DocumentProcessColors: Cyan Magenta Yellow Black
%%LanguageLevel: 2
%%Pages: 1
%%BoundingBox:   107   296   503   495
%%EndComments

%%BeginProlog
% MathWorks dictionary
/MathWorks 160 dict begin
% definition operators
/bdef {bind def} bind def
/ldef {load def} bind def
/xdef {exch def} bdef
/xstore {exch store} bdef
% operator abbreviations
/c  /clip ldef
/cc /concat ldef
/cp /closepath ldef
/gr /grestore ldef
/gs /gsave ldef
/mt /moveto ldef
/np /newpath ldef
/cm /currentmatrix ldef
/sm /setmatrix ldef
/rm /rmoveto ldef
/rl /rlineto ldef
/s {show newpath} bdef
/sc {setcmykcolor} bdef
/sr /setrgbcolor ldef
/sg /setgray ldef
/w /setlinewidth ldef
/j /setlinejoin ldef
/cap /setlinecap ldef
/rc {rectclip} bdef
/rf {rectfill} bdef
% page state control
/pgsv () def
/bpage {/pgsv save def} bdef
/epage {pgsv restore} bdef
/bplot /gsave ldef
/eplot {stroke grestore} bdef
% orientation switch
/portraitMode 0 def /landscapeMode 1 def /rotateMode 2 def
% coordinate system mappings
/dpi2point 0 def
% font control
/FontSize 0 def
/FMS {/FontSize xstore findfont [FontSize 0 0 FontSize neg 0 0]
  makefont setfont} bdef
/reencode {exch dup where {pop load} {pop StandardEncoding} ifelse
  exch dup 3 1 roll findfont dup length dict begin
  { 1 index /FID ne {def}{pop pop} ifelse } forall
  /Encoding exch def currentdict end definefont pop} bdef
/isroman {findfont /CharStrings get /Agrave known} bdef
/FMSR {3 1 roll 1 index dup isroman {reencode} {pop pop} ifelse
  exch FMS} bdef
/csm {1 dpi2point div -1 dpi2point div scale neg translate
 dup landscapeMode eq {pop -90 rotate}
  {rotateMode eq {90 rotate} if} ifelse} bdef
% line types: solid, dotted, dashed, dotdash
/SO { [] 0 setdash } bdef
/DO { [.5 dpi2point mul 4 dpi2point mul] 0 setdash } bdef
/DA { [6 dpi2point mul] 0 setdash } bdef
/DD { [.5 dpi2point mul 4 dpi2point mul 6 dpi2point mul 4
  dpi2point mul] 0 setdash } bdef
% macros for lines and objects
/L {lineto stroke} bdef
/MP {3 1 roll moveto 1 sub {rlineto} repeat} bdef
/AP {{rlineto} repeat} bdef
/PDlw -1 def
/W {/PDlw currentlinewidth def setlinewidth} def
/PP {closepath eofill} bdef
/DP {closepath stroke} bdef
/MR {4 -2 roll moveto dup  0 exch rlineto exch 0 rlineto
  neg 0 exch rlineto closepath} bdef
/FR {MR stroke} bdef
/PR {MR fill} bdef
/L1i {{currentfile picstr readhexstring pop} image} bdef
/tMatrix matrix def
/MakeOval {newpath tMatrix currentmatrix pop translate scale
0 0 1 0 360 arc tMatrix setmatrix} bdef
/FO {MakeOval stroke} bdef
/PO {MakeOval fill} bdef
/PD {currentlinewidth 2 div 0 360 arc fill
   PDlw -1 eq not {PDlw w /PDlw -1 def} if} def
/FA {newpath tMatrix currentmatrix pop translate scale
  0 0 1 5 -2 roll arc tMatrix setmatrix stroke} bdef
/PA {newpath tMatrix currentmatrix pop	translate 0 0 moveto scale
  0 0 1 5 -2 roll arc closepath tMatrix setmatrix fill} bdef
/FAn {newpath tMatrix currentmatrix pop translate scale
  0 0 1 5 -2 roll arcn tMatrix setmatrix stroke} bdef
/PAn {newpath tMatrix currentmatrix pop translate 0 0 moveto scale
  0 0 1 5 -2 roll arcn closepath tMatrix setmatrix fill} bdef
/vradius 0 def /hradius 0 def /lry 0 def
/lrx 0 def /uly 0 def /ulx 0 def /rad 0 def
/MRR {/vradius xdef /hradius xdef /lry xdef /lrx xdef /uly xdef
  /ulx xdef newpath tMatrix currentmatrix pop ulx hradius add uly
  vradius add translate hradius vradius scale 0 0 1 180 270 arc 
  tMatrix setmatrix lrx hradius sub uly vradius add translate
  hradius vradius scale 0 0 1 270 360 arc tMatrix setmatrix
  lrx hradius sub lry vradius sub translate hradius vradius scale
  0 0 1 0 90 arc tMatrix setmatrix ulx hradius add lry vradius sub
  translate hradius vradius scale 0 0 1 90 180 arc tMatrix setmatrix
  closepath} bdef
/FRR {MRR stroke } bdef
/PRR {MRR fill } bdef
/MlrRR {/lry xdef /lrx xdef /uly xdef /ulx xdef /rad lry uly sub 2 div def
  newpath tMatrix currentmatrix pop ulx rad add uly rad add translate
  rad rad scale 0 0 1 90 270 arc tMatrix setmatrix lrx rad sub lry rad
  sub translate rad rad scale 0 0 1 270 90 arc tMatrix setmatrix
  closepath} bdef
/FlrRR {MlrRR stroke } bdef
/PlrRR {MlrRR fill } bdef
/MtbRR {/lry xdef /lrx xdef /uly xdef /ulx xdef /rad lrx ulx sub 2 div def
  newpath tMatrix currentmatrix pop ulx rad add uly rad add translate
  rad rad scale 0 0 1 180 360 arc tMatrix setmatrix lrx rad sub lry rad
  sub translate rad rad scale 0 0 1 0 180 arc tMatrix setmatrix
  closepath} bdef
/FtbRR {MtbRR stroke } bdef
/PtbRR {MtbRR fill } bdef
/stri 6 array def /dtri 6 array def
/smat 6 array def /dmat 6 array def
/tmat1 6 array def /tmat2 6 array def /dif 3 array def
/asub {/ind2 exch def /ind1 exch def dup dup
  ind1 get exch ind2 get sub exch } bdef
/tri_to_matrix {
  2 0 asub 3 1 asub 4 0 asub 5 1 asub
  dup 0 get exch 1 get 7 -1 roll astore } bdef
/compute_transform {
  dmat dtri tri_to_matrix tmat1 invertmatrix 
  smat stri tri_to_matrix tmat2 concatmatrix } bdef
/ds {stri astore pop} bdef
/dt {dtri astore pop} bdef
/db {2 copy /cols xdef /rows xdef mul dup 3 mul string
  currentfile 
  3 index 0 eq {/ASCIIHexDecode filter}
  {/ASCII85Decode filter 3 index 2 eq {/RunLengthDecode filter} if }
  ifelse exch readstring pop
  dup 0 3 index getinterval /rbmap xdef
  dup 2 index dup getinterval /gbmap xdef
  1 index dup 2 mul exch getinterval /bbmap xdef pop pop}bdef
/it {gs np dtri aload pop moveto lineto lineto cp c
  cols rows 8 compute_transform 
  rbmap gbmap bbmap true 3 colorimage gr}bdef
/il {newpath moveto lineto stroke}bdef
currentdict end def
%%EndProlog

%%BeginSetup
MathWorks begin

0 cap

end
%%EndSetup

%%Page: 1 1
%%BeginPageSetup
%%PageBoundingBox:   107   296   503   495
MathWorks begin
bpage
%%EndPageSetup

%%BeginObject: obj1
bplot

/dpi2point 12 def
portraitMode 1284 5940 csm

    0     0  4762  2381 rc
85 dict begin %Colortable dictionary
/c0 { 0.000000 0.000000 0.000000 sr} bdef
/c1 { 1.000000 1.000000 1.000000 sr} bdef
/c2 { 0.900000 0.000000 0.000000 sr} bdef
/c3 { 0.000000 0.820000 0.000000 sr} bdef
/c4 { 0.000000 0.000000 0.800000 sr} bdef
/c5 { 0.910000 0.820000 0.320000 sr} bdef
/c6 { 1.000000 0.260000 0.820000 sr} bdef
/c7 { 0.000000 0.820000 0.820000 sr} bdef
c0
1 j
1 sg
   0    0 4763 2382 rf
6 w
0 1932 3692 0 0 -1932 618 2110 4 MP
PP
-3692 0 0 1932 3692 0 0 -1932 618 2110 5 MP stroke
4 w
DO
SO
6 w
0 sg
 618 2110 mt 4310 2110 L
 618 2110 mt  618  178 L
 618 2110 mt  618 2073 L
%%IncludeResource: font Helvetica
/Helvetica /ISOLatin1Encoding 96 FMSR

 592 2233 mt 
(0) s
1234 2110 mt 1234 2073 L
1168 2233 mt 
(0.2) s
1849 2110 mt 1849 2073 L
1783 2233 mt 
(0.4) s
2464 2110 mt 2464 2073 L
2398 2233 mt 
(0.6) s
3079 2110 mt 3079 2073 L
3013 2233 mt 
(0.8) s
3694 2110 mt 3694 2073 L
3668 2233 mt 
(1) s
4310 2110 mt 4310 2073 L
4244 2233 mt 
(1.2) s
 618 1976 mt  655 1976 L
 395 2011 mt 
(-1.5) s
 618 1643 mt  655 1643 L
 475 1678 mt 
(-1) s
 618 1310 mt  655 1310 L
 395 1345 mt 
(-0.5) s
 618  978 mt  655  978 L
 531 1013 mt 
(0) s
 618  645 mt  655  645 L
 451  680 mt 
(0.5) s
 618  312 mt  655  312 L
 531  347 mt 
(1) s
gs 619 179 3692 1932 rc
/c8 { 0.000000 0.000000 1.000000 sr} bdef
c8
-12 100 -316 0 12 -100 316 0 3529 1044 5 MP stroke
-317 0 35 -99 316 0 -34 99 3544 978 5 MP stroke
-58 100 -316 0 58 -100 316 0 3483 1111 5 MP stroke
-81 100 -316 0 80 -100 317 0 3448 1144 5 MP stroke
-104 100 -316 0 104 -100 316 0 3406 1177 5 MP stroke
-127 100 -316 0 127 -100 316 0 3356 1211 5 MP stroke
-150 100 -317 0 150 -100 317 0 3298 1244 5 MP stroke
-173 100 -316 0 173 -100 316 0 3233 1277 5 MP stroke
-196 99 -316 0 196 -99 316 0 3160 1310 5 MP stroke
-219 100 -317 0 220 -100 316 0 3079 1344 5 MP stroke
-242 100 -316 0 242 -100 316 0 2991 1377 5 MP stroke
-265 100 -316 0 265 -100 316 0 2895 1410 5 MP stroke
-288 100 -316 0 288 -100 316 0 2791 1444 5 MP stroke
-312 100 -316 0 311 -100 317 0 2679 1477 5 MP stroke
-335 100 -316 0 335 -100 316 0 2560 1510 5 MP stroke
-358 100 -316 0 358 -100 316 0 2433 1544 5 MP stroke
-380 100 -317 0 381 -100 316 0 2299 1577 5 MP stroke
-404 100 -316 0 403 -100 317 0 2156 1610 5 MP stroke
-427 99 -316 0 426 -99 317 0 2006 1643 5 MP stroke
-450 100 -316 0 450 -100 316 0 1849 1677 5 MP stroke
-472 100 -317 0 473 -100 316 0 1684 1710 5 MP stroke
496 -100 317 0 -496 100 -317 0 2323 1643 5 MP stroke
519 -100 316 0 -519 100 -316 0 2165 1677 5 MP stroke
542 -100 317 0 -543 100 -316 0 2000 1710 5 MP stroke
565 -100 317 0 -565 100 -317 0 1827 1743 5 MP stroke
588 -99 316 0 -588 99 -316 0 1646 1777 5 MP stroke
-522 85 -317 0 1458 1810 3 MP stroke
612 -100 227 0 619 1910 3 MP stroke
-326 52 -317 0 1262 1843 3 MP stroke
635 -100 8 0 619 1943 3 MP stroke
-123 19 -316 0 1058 1876 3 MP stroke
439 -67 619 1943 2 MP stroke
-227 0 846 1910 2 MP stroke
227 -33 619 1943 2 MP stroke
-8 0 627 1943 2 MP stroke
8 -1 619 1944 2 MP stroke
-5 0 -159 -34 4 -37 779 323 4 MP stroke
5 0 155 32 619 291 3 MP stroke
5 0 152 33 -13 37 -5 0 -152 -33 13 -37 926 356 7 MP stroke
21 -38 6 0 143 34 -21 37 -5 0 -144 -33 1087 352 7 MP stroke
30 -37 6 0 136 33 -30 38 -6 0 -136 -34 1228 386 7 MP stroke
39 -37 5 0 129 33 -39 37 -5 0 -129 -33 1361 419 7 MP stroke
47 -37 6 0 121 33 -48 37 -5 0 -121 -33 1486 452 7 MP stroke
56 -37 5 0 113 34 -56 37 -5 0 -113 -34 1603 486 7 MP stroke
64 -37 6 0 105 33 -64 37 -6 0 -105 -33 1713 519 7 MP stroke
73 -37 5 0 98 33 -73 37 -5 0 -98 -33 1815 552 7 MP stroke
-5 0 -91 -33 82 -38 5 0 90 34 -81 37 1814 552 7 MP stroke
-5 0 -82 -34 90 -37 5 0 83 33 -91 38 1909 585 7 MP stroke
-6 0 -74 -33 99 -37 5 0 75 33 -99 37 1995 619 7 MP stroke
-6 0 -67 -33 108 -38 5 0 67 34 -107 37 2074 652 7 MP stroke
-5 0 -59 -34 116 -37 5 0 59 33 -116 38 2146 685 7 MP stroke
-6 0 -51 -33 124 -37 6 0 51 33 -124 37 2209 719 7 MP stroke
-6 0 -44 -33 134 -37 5 0 44 33 -133 37 2265 752 7 MP stroke
-5 0 -36 -33 142 -38 5 0 36 34 -142 37 2314 785 7 MP stroke
6 0 28 33 -150 38 -5 0 -29 -34 150 -37 2238 889 7 MP stroke
5 0 21 33 -159 37 -5 0 -21 -33 159 -37 2254 922 7 MP stroke
5 0 13 34 -167 37 -6 0 -13 -33 168 -38 2263 956 7 MP stroke
5 0 6 33 -177 38 -5 0 -6 -34 177 -37 2264 989 7 MP stroke
5 0 -2 33 -185 37 -5 0 2 -33 185 -37 2258 1022 7 MP stroke
6 0 -10 33 -194 37 -5 0 10 -33 193 -37 2244 1055 7 MP stroke
5 0 -17 34 -202 37 -5 0 17 -34 202 -37 2222 1089 7 MP stroke
5 0 -25 33 -211 37 -5 0 25 -33 211 -37 2192 1122 7 MP stroke
5 0 -33 33 -219 37 -5 0 33 -33 219 -37 2155 1155 7 MP stroke
5 0 -40 34 -228 37 -6 0 41 -33 228 -38 2110 1189 7 MP stroke
6 0 -49 33 -236 38 -5 0 48 -34 236 -37 2058 1222 7 MP stroke
5 0 -56 33 -245 37 -5 0 56 -33 245 -37 1997 1255 7 MP stroke
5 0 -64 34 -253 37 -6 0 64 -33 254 -38 1929 1289 7 MP stroke
71 -34 262 -37 6 0 -72 33 -262 38 -5 0 2187 1251 7 MP stroke
79 -33 271 -37 5 0 -79 33 -271 37 -5 0 2120 1285 7 MP stroke
86 -33 280 -37 5 0 -87 33 -279 37 -5 0 2045 1318 7 MP stroke
-95 34 -288 37 -5 0 94 -33 289 -38 5 0 1575 1422 7 MP stroke
-102 33 -297 38 -5 0 102 -34 297 -37 5 0 1469 1455 7 MP stroke
-109 33 -306 37 -5 0 110 -33 305 -37 5 0 1355 1488 7 MP stroke
314 -38 5 0 -117 34 -314 37 -6 0 118 -33 1552 1484 7 MP stroke
322 -37 6 0 -125 33 -323 38 -5 0 125 -34 1431 1518 7 MP stroke
332 -37 5 0 -133 33 -331 37 -5 0 132 -33 1303 1551 7 MP stroke
340 -37 5 0 -141 33 -340 37 -5 0 141 -33 1166 1584 7 MP stroke
149 -34 348 -37 5 0 -148 34 -348 37 -6 0 1171 1584 7 MP stroke
-45 10 -357 37 -6 0 1027 1618 4 MP stroke
156 -33 252 -26 619 1677 3 MP stroke
-251 25 -5 0 875 1651 3 MP stroke
164 -33 92 -10 619 1694 3 MP stroke
-91 9 -6 0 716 1684 3 MP stroke
97 -19 619 1703 2 MP stroke
-4 0 -118 -34 741 467 3 MP stroke
3 -29 4 0 115 33 619 463 4 MP stroke
10 -29 4 0 111 33 -10 29 -5 0 -110 -33 855 500 7 MP stroke
17 -29 4 0 103 33 -16 29 -5 0 -103 -33 962 533 7 MP stroke
24 -28 4 0 95 33 -23 29 -4 0 -96 -34 1061 567 7 MP stroke
30 -29 5 0 87 34 -30 28 -4 0 -88 -33 1152 600 7 MP stroke
37 -29 4 0 80 33 -37 29 -4 0 -80 -33 1235 633 7 MP stroke
44 -28 4 0 72 33 -43 29 -4 0 -73 -34 1311 667 7 MP stroke
50 -29 5 0 64 34 -50 28 -4 0 -65 -33 1379 700 7 MP stroke
57 -29 4 0 57 33 -57 29 -4 0 -57 -33 1439 733 7 MP stroke
64 -29 4 0 49 33 -63 29 -4 0 -50 -33 1492 766 7 MP stroke
-4 0 -42 -34 70 -29 5 0 41 34 -70 29 1491 766 7 MP stroke
-4 0 -34 -33 77 -29 4 0 34 33 -77 29 1536 800 7 MP stroke
-4 0 -26 -33 83 -29 4 0 26 33 -83 29 1573 833 7 MP stroke
4 0 19 33 -90 29 -5 0 -18 -34 90 -28 1535 928 7 MP stroke
4 0 11 34 -96 28 -4 0 -11 -33 96 -29 1543 962 7 MP stroke
5 0 3 33 -103 29 -5 0 -3 -33 103 -29 1543 995 7 MP stroke
5 0 -5 33 -110 29 -4 0 4 -33 110 -29 1535 1028 7 MP stroke
4 0 -12 34 -117 29 -4 0 12 -34 117 -29 1519 1062 7 MP stroke
4 0 -20 33 -123 29 -4 0 20 -33 123 -29 1496 1095 7 MP stroke
27 -33 130 -29 4 0 -27 33 -130 29 -4 0 1622 1066 7 MP stroke
35 -34 137 -28 4 0 -35 33 -137 29 -4 0 1598 1099 7 MP stroke
43 -33 143 -29 4 0 -43 34 -143 28 -4 0 1566 1133 7 MP stroke
-50 33 -150 29 -4 0 50 -33 150 -29 4 0 1322 1228 7 MP stroke
-58 33 -157 29 -4 0 58 -34 157 -28 4 0 1260 1261 7 MP stroke
-66 34 -163 28 -4 0 66 -33 163 -29 4 0 1191 1295 7 MP stroke
170 -29 4 0 -73 33 -170 29 -4 0 73 -33 1288 1299 7 MP stroke
176 -29 4 0 -81 33 -177 29 -4 0 82 -33 1209 1332 7 MP stroke
183 -28 5 0 -89 33 -183 29 -5 0 89 -34 1124 1366 7 MP stroke
190 -29 4 0 -97 34 -190 28 -4 0 97 -33 1030 1399 7 MP stroke
196 -29 5 0 -105 33 -196 29 -4 0 104 -33 929 1432 7 MP stroke
-106 32 -203 29 -4 0 112 -34 820 1466 5 MP stroke
201 -28 619 1494 2 MP stroke
-200 27 -4 0 119 -33 704 1499 4 MP stroke
85 -12 619 1511 2 MP stroke
-84 11 -4 0 88 -23 619 1522 4 MP stroke
-3 0 -88 -34 710 603 3 MP stroke
3 -21 3 0 85 32 619 592 4 MP stroke
8 -22 3 0 81 34 -8 21 -3 0 -81 -33 793 636 7 MP stroke
13 -22 3 0 73 33 -13 22 -3 0 -73 -33 868 669 7 MP stroke
0 sg
-273 43 -261 42 -248 43 -235 43 -421 83 -372 84 -325 83 -277 83 
-228 83 -181 83 -132 84 -84 83 -14 21 -11 21 -7 21 -5 21 
0 4 -1 4 0 12 3694 978 20 MP stroke
4 33 11 33 18 32 26 33 66 59 91 60 116 60 141 59 
165 60 190 60 214 60 239 59 85 20 87 20 90 19 92 20 
19 4 19 4 19 4 19 4 4 1 4 0 4 1 4 1 
1 0 1 0 1 1 619 271 28 MP stroke
-117 25 -113 24 -109 24 -105 25 -171 42 -159 42 -147 42 -135 42 
-122 42 -110 42 -98 42 -86 42 -73 42 -61 42 -49 42 -37 42 
-13 21 -11 21 -8 21 -4 21 -1 4 0 8 -1 4 0 4 
2349 978 25 MP stroke
0 4 1 4 0 8 5 25 9 24 13 24 17 25 21 24 
25 25 30 24 34 24 37 25 42 24 46 25 50 24 54 24 
59 25 62 24 67 24 71 25 74 24 79 25 83 24 19 5 
19 5 18 6 19 5 4 1 4 1 4 1 4 1 1 0 
1 1 1 0 619 448 35 MP stroke
-19 6 -18 6 -17 6 -18 6 -32 11 -31 11 -31 11 -29 11 
-29 11 -28 12 -27 11 -26 11 -25 11 -24 11 -24 11 -23 11 
-22 11 -21 12 -20 11 -19 11 -18 11 -18 11 -16 11 -16 11 
-15 12 -14 11 -14 11 -12 11 -11 11 -11 11 -10 11 -9 12 
-8 11 -7 11 -6 11 -6 11 -4 11 -4 11 -3 11 -2 12 
-1 4 0 8 -1 4 0 4 1592 978 45 MP stroke
gr

2436 2358 mt 
(a) s
 319 1172 mt  -90 rotate
(b) s
90 rotate
gs 619 179 3692 1932 rc
1 sg
0 67 -307 0 0 -67 307 0 3541 1011 5 MP
PP
0 sg
0 0 0 67 -307 0 0 -67 307 0 3541 1011 6 MP stroke
c8
-12 100 -316 0 12 -100 316 0 3529 1044 5 MP stroke
-317 0 35 -99 316 0 -34 99 3544 978 5 MP stroke
-58 100 -316 0 58 -100 316 0 3483 1111 5 MP stroke
-81 100 -316 0 80 -100 317 0 3448 1144 5 MP stroke
-104 100 -316 0 104 -100 316 0 3406 1177 5 MP stroke
-127 100 -316 0 127 -100 316 0 3356 1211 5 MP stroke
-150 100 -317 0 150 -100 317 0 3298 1244 5 MP stroke
-173 100 -316 0 173 -100 316 0 3233 1277 5 MP stroke
-196 99 -316 0 196 -99 316 0 3160 1310 5 MP stroke
-219 100 -317 0 220 -100 316 0 3079 1344 5 MP stroke
-242 100 -316 0 242 -100 316 0 2991 1377 5 MP stroke
-265 100 -316 0 265 -100 316 0 2895 1410 5 MP stroke
-288 100 -316 0 288 -100 316 0 2791 1444 5 MP stroke
-312 100 -316 0 311 -100 317 0 2679 1477 5 MP stroke
-335 100 -316 0 335 -100 316 0 2560 1510 5 MP stroke
-358 100 -316 0 358 -100 316 0 2433 1544 5 MP stroke
-380 100 -317 0 381 -100 316 0 2299 1577 5 MP stroke
-404 100 -316 0 403 -100 317 0 2156 1610 5 MP stroke
-427 99 -316 0 426 -99 317 0 2006 1643 5 MP stroke
-450 100 -316 0 450 -100 316 0 1849 1677 5 MP stroke
-472 100 -317 0 473 -100 316 0 1684 1710 5 MP stroke
496 -100 317 0 -496 100 -317 0 2323 1643 5 MP stroke
519 -100 316 0 -519 100 -316 0 2165 1677 5 MP stroke
542 -100 317 0 -543 100 -316 0 2000 1710 5 MP stroke
565 -100 317 0 -565 100 -317 0 1827 1743 5 MP stroke
588 -99 316 0 -588 99 -316 0 1646 1777 5 MP stroke
-522 85 -317 0 1458 1810 3 MP stroke
612 -100 227 0 619 1910 3 MP stroke
-326 52 -317 0 1262 1843 3 MP stroke
635 -100 8 0 619 1943 3 MP stroke
-123 19 -316 0 1058 1876 3 MP stroke
439 -67 619 1943 2 MP stroke
-227 0 846 1910 2 MP stroke
227 -33 619 1943 2 MP stroke
-8 0 627 1943 2 MP stroke
8 -1 619 1944 2 MP stroke
-5 0 -159 -34 4 -37 779 323 4 MP stroke
5 0 155 32 619 291 3 MP stroke
5 0 152 33 -13 37 -5 0 -152 -33 13 -37 926 356 7 MP stroke
21 -38 6 0 143 34 -21 37 -5 0 -144 -33 1087 352 7 MP stroke
30 -37 6 0 136 33 -30 38 -6 0 -136 -34 1228 386 7 MP stroke
39 -37 5 0 129 33 -39 37 -5 0 -129 -33 1361 419 7 MP stroke
47 -37 6 0 121 33 -48 37 -5 0 -121 -33 1486 452 7 MP stroke
56 -37 5 0 113 34 -56 37 -5 0 -113 -34 1603 486 7 MP stroke
64 -37 6 0 105 33 -64 37 -6 0 -105 -33 1713 519 7 MP stroke
73 -37 5 0 98 33 -73 37 -5 0 -98 -33 1815 552 7 MP stroke
-5 0 -91 -33 82 -38 5 0 90 34 -81 37 1814 552 7 MP stroke
-5 0 -82 -34 90 -37 5 0 83 33 -91 38 1909 585 7 MP stroke
-6 0 -74 -33 99 -37 5 0 75 33 -99 37 1995 619 7 MP stroke
-6 0 -67 -33 108 -38 5 0 67 34 -107 37 2074 652 7 MP stroke
-5 0 -59 -34 116 -37 5 0 59 33 -116 38 2146 685 7 MP stroke
-6 0 -51 -33 124 -37 6 0 51 33 -124 37 2209 719 7 MP stroke
-6 0 -44 -33 134 -37 5 0 44 33 -133 37 2265 752 7 MP stroke
-5 0 -36 -33 142 -38 5 0 36 34 -142 37 2314 785 7 MP stroke
6 0 28 33 -150 38 -5 0 -29 -34 150 -37 2238 889 7 MP stroke
5 0 21 33 -159 37 -5 0 -21 -33 159 -37 2254 922 7 MP stroke
5 0 13 34 -167 37 -6 0 -13 -33 168 -38 2263 956 7 MP stroke
5 0 6 33 -177 38 -5 0 -6 -34 177 -37 2264 989 7 MP stroke
5 0 -2 33 -185 37 -5 0 2 -33 185 -37 2258 1022 7 MP stroke
6 0 -10 33 -194 37 -5 0 10 -33 193 -37 2244 1055 7 MP stroke
5 0 -17 34 -202 37 -5 0 17 -34 202 -37 2222 1089 7 MP stroke
5 0 -25 33 -211 37 -5 0 25 -33 211 -37 2192 1122 7 MP stroke
5 0 -33 33 -219 37 -5 0 33 -33 219 -37 2155 1155 7 MP stroke
5 0 -40 34 -228 37 -6 0 41 -33 228 -38 2110 1189 7 MP stroke
6 0 -49 33 -236 38 -5 0 48 -34 236 -37 2058 1222 7 MP stroke
5 0 -56 33 -245 37 -5 0 56 -33 245 -37 1997 1255 7 MP stroke
5 0 -64 34 -253 37 -6 0 64 -33 254 -38 1929 1289 7 MP stroke
71 -34 262 -37 6 0 -72 33 -262 38 -5 0 2187 1251 7 MP stroke
79 -33 271 -37 5 0 -79 33 -271 37 -5 0 2120 1285 7 MP stroke
86 -33 280 -37 5 0 -87 33 -279 37 -5 0 2045 1318 7 MP stroke
-95 34 -288 37 -5 0 94 -33 289 -38 5 0 1575 1422 7 MP stroke
-102 33 -297 38 -5 0 102 -34 297 -37 5 0 1469 1455 7 MP stroke
-109 33 -306 37 -5 0 110 -33 305 -37 5 0 1355 1488 7 MP stroke
314 -38 5 0 -117 34 -314 37 -6 0 118 -33 1552 1484 7 MP stroke
322 -37 6 0 -125 33 -323 38 -5 0 125 -34 1431 1518 7 MP stroke
332 -37 5 0 -133 33 -331 37 -5 0 132 -33 1303 1551 7 MP stroke
340 -37 5 0 -141 33 -340 37 -5 0 141 -33 1166 1584 7 MP stroke
149 -34 348 -37 5 0 -148 34 -348 37 -6 0 1171 1584 7 MP stroke
-45 10 -357 37 -6 0 1027 1618 4 MP stroke
156 -33 252 -26 619 1677 3 MP stroke
-251 25 -5 0 875 1651 3 MP stroke
164 -33 92 -10 619 1694 3 MP stroke
-91 9 -6 0 716 1684 3 MP stroke
97 -19 619 1703 2 MP stroke
-4 0 -118 -34 741 467 3 MP stroke
3 -29 4 0 115 33 619 463 4 MP stroke
10 -29 4 0 111 33 -10 29 -5 0 -110 -33 855 500 7 MP stroke
17 -29 4 0 103 33 -16 29 -5 0 -103 -33 962 533 7 MP stroke
24 -28 4 0 95 33 -23 29 -4 0 -96 -34 1061 567 7 MP stroke
30 -29 5 0 87 34 -30 28 -4 0 -88 -33 1152 600 7 MP stroke
37 -29 4 0 80 33 -37 29 -4 0 -80 -33 1235 633 7 MP stroke
44 -28 4 0 72 33 -43 29 -4 0 -73 -34 1311 667 7 MP stroke
50 -29 5 0 64 34 -50 28 -4 0 -65 -33 1379 700 7 MP stroke
57 -29 4 0 57 33 -57 29 -4 0 -57 -33 1439 733 7 MP stroke
64 -29 4 0 49 33 -63 29 -4 0 -50 -33 1492 766 7 MP stroke
-4 0 -42 -34 70 -29 5 0 41 34 -70 29 1491 766 7 MP stroke
-4 0 -34 -33 77 -29 4 0 34 33 -77 29 1536 800 7 MP stroke
-4 0 -26 -33 83 -29 4 0 26 33 -83 29 1573 833 7 MP stroke
4 0 19 33 -90 29 -5 0 -18 -34 90 -28 1535 928 7 MP stroke
4 0 11 34 -96 28 -4 0 -11 -33 96 -29 1543 962 7 MP stroke
5 0 3 33 -103 29 -5 0 -3 -33 103 -29 1543 995 7 MP stroke
5 0 -5 33 -110 29 -4 0 4 -33 110 -29 1535 1028 7 MP stroke
4 0 -12 34 -117 29 -4 0 12 -34 117 -29 1519 1062 7 MP stroke
4 0 -20 33 -123 29 -4 0 20 -33 123 -29 1496 1095 7 MP stroke
27 -33 130 -29 4 0 -27 33 -130 29 -4 0 1622 1066 7 MP stroke
35 -34 137 -28 4 0 -35 33 -137 29 -4 0 1598 1099 7 MP stroke
43 -33 143 -29 4 0 -43 34 -143 28 -4 0 1566 1133 7 MP stroke
-50 33 -150 29 -4 0 50 -33 150 -29 4 0 1322 1228 7 MP stroke
-58 33 -157 29 -4 0 58 -34 157 -28 4 0 1260 1261 7 MP stroke
-66 34 -163 28 -4 0 66 -33 163 -29 4 0 1191 1295 7 MP stroke
170 -29 4 0 -73 33 -170 29 -4 0 73 -33 1288 1299 7 MP stroke
176 -29 4 0 -81 33 -177 29 -4 0 82 -33 1209 1332 7 MP stroke
183 -28 5 0 -89 33 -183 29 -5 0 89 -34 1124 1366 7 MP stroke
190 -29 4 0 -97 34 -190 28 -4 0 97 -33 1030 1399 7 MP stroke
196 -29 5 0 -105 33 -196 29 -4 0 104 -33 929 1432 7 MP stroke
-106 32 -203 29 -4 0 112 -34 820 1466 5 MP stroke
201 -28 619 1494 2 MP stroke
-200 27 -4 0 119 -33 704 1499 4 MP stroke
85 -12 619 1511 2 MP stroke
-84 11 -4 0 88 -23 619 1522 4 MP stroke
-3 0 -88 -34 710 603 3 MP stroke
3 -21 3 0 85 32 619 592 4 MP stroke
8 -22 3 0 81 34 -8 21 -3 0 -81 -33 793 636 7 MP stroke
13 -22 3 0 73 33 -13 22 -3 0 -73 -33 868 669 7 MP stroke
1 sg
0 67 -307 0 0 -67 307 0 3541 1011 5 MP
PP
0 sg
0 0 0 67 -307 0 0 -67 307 0 3541 1011 6 MP stroke
-273 43 -261 42 -248 43 -235 43 -421 83 -372 84 -325 83 -277 83 
-228 83 -181 83 -132 84 -84 83 -14 21 -11 21 -7 21 -5 21 
0 4 -1 4 0 12 3694 978 20 MP stroke
4 33 11 33 18 32 26 33 66 59 91 60 116 60 141 59 
165 60 190 60 214 60 239 59 85 20 87 20 90 19 92 20 
19 4 19 4 19 4 19 4 4 1 4 0 4 1 4 1 
1 0 1 0 1 1 619 271 28 MP stroke
-117 25 -113 24 -109 24 -105 25 -171 42 -159 42 -147 42 -135 42 
-122 42 -110 42 -98 42 -86 42 -73 42 -61 42 -49 42 -37 42 
-13 21 -11 21 -8 21 -4 21 -1 4 0 8 -1 4 0 4 
2349 978 25 MP stroke
0 4 1 4 0 8 5 25 9 24 13 24 17 25 21 24 
25 25 30 24 34 24 37 25 42 24 46 25 50 24 54 24 
59 25 62 24 67 24 71 25 74 24 79 25 83 24 19 5 
19 5 18 6 19 5 4 1 4 1 4 1 4 1 1 0 
1 1 1 0 619 448 35 MP stroke
-19 6 -18 6 -17 6 -18 6 -32 11 -31 11 -31 11 -29 11 
-29 11 -28 12 -27 11 -26 11 -25 11 -24 11 -24 11 -23 11 
-22 11 -21 12 -20 11 -19 11 -18 11 -18 11 -16 11 -16 11 
-15 12 -14 11 -14 11 -12 11 -11 11 -11 11 -10 11 -9 12 
-8 11 -7 11 -6 11 -6 11 -4 11 -4 11 -3 11 -2 12 
-1 4 0 8 -1 4 0 4 1592 978 45 MP stroke
gr


end %%Color Dict

eplot
%%EndObject

epage
end

showpage

%%Trailer
%%EOF
