%!PS-Adobe-3.0 EPSF-3.0
%%Creator: MATLAB, The MathWorks, Inc. Version 8.2.0.701 (R2013b). Operating System: Linux 3.8.0-44-generic #66~precise1-Ubuntu SMP Tue Jul 15 04:01:04 UTC 2014 x86_64.
%%Title: /media/Transcend/DATA/drafts/2015/ARCH2015_Cora/figures/bouncingBall_Mapping.eps
%%CreationDate: 03/10/2015  20:11:19
%%DocumentNeededFonts: Helvetica
%%DocumentProcessColors: Cyan Magenta Yellow Black
%%LanguageLevel: 2
%%Pages: 1
%%BoundingBox:    81   228   529   564
%%EndComments

%%BeginProlog
% MathWorks dictionary
/MathWorks 160 dict begin
% definition operators
/bdef {bind def} bind def
/ldef {load def} bind def
/xdef {exch def} bdef
/xstore {exch store} bdef
% operator abbreviations
/c  /clip ldef
/cc /concat ldef
/cp /closepath ldef
/gr /grestore ldef
/gs /gsave ldef
/mt /moveto ldef
/np /newpath ldef
/cm /currentmatrix ldef
/sm /setmatrix ldef
/rm /rmoveto ldef
/rl /rlineto ldef
/s {show newpath} bdef
/sc {setcmykcolor} bdef
/sr /setrgbcolor ldef
/sg /setgray ldef
/w /setlinewidth ldef
/j /setlinejoin ldef
/cap /setlinecap ldef
/rc {rectclip} bdef
/rf {rectfill} bdef
% page state control
/pgsv () def
/bpage {/pgsv save def} bdef
/epage {pgsv restore} bdef
/bplot /gsave ldef
/eplot {stroke grestore} bdef
% orientation switch
/portraitMode 0 def /landscapeMode 1 def /rotateMode 2 def
% coordinate system mappings
/dpi2point 0 def
% font control
/FontSize 0 def
/FMS {/FontSize xstore findfont [FontSize 0 0 FontSize neg 0 0]
  makefont setfont} bdef
/reencode {exch dup where {pop load} {pop StandardEncoding} ifelse
  exch dup 3 1 roll findfont dup length dict begin
  { 1 index /FID ne {def}{pop pop} ifelse } forall
  /Encoding exch def currentdict end definefont pop} bdef
/isroman {findfont /CharStrings get /Agrave known} bdef
/FMSR {3 1 roll 1 index dup isroman {reencode} {pop pop} ifelse
  exch FMS} bdef
/csm {1 dpi2point div -1 dpi2point div scale neg translate
 dup landscapeMode eq {pop -90 rotate}
  {rotateMode eq {90 rotate} if} ifelse} bdef
% line types: solid, dotted, dashed, dotdash
/SO { [] 0 setdash } bdef
/DO { [.5 dpi2point mul 4 dpi2point mul] 0 setdash } bdef
/DA { [6 dpi2point mul] 0 setdash } bdef
/DD { [.5 dpi2point mul 4 dpi2point mul 6 dpi2point mul 4
  dpi2point mul] 0 setdash } bdef
% macros for lines and objects
/L {lineto stroke} bdef
/MP {3 1 roll moveto 1 sub {rlineto} repeat} bdef
/AP {{rlineto} repeat} bdef
/PDlw -1 def
/W {/PDlw currentlinewidth def setlinewidth} def
/PP {closepath eofill} bdef
/DP {closepath stroke} bdef
/MR {4 -2 roll moveto dup  0 exch rlineto exch 0 rlineto
  neg 0 exch rlineto closepath} bdef
/FR {MR stroke} bdef
/PR {MR fill} bdef
/L1i {{currentfile picstr readhexstring pop} image} bdef
/tMatrix matrix def
/MakeOval {newpath tMatrix currentmatrix pop translate scale
0 0 1 0 360 arc tMatrix setmatrix} bdef
/FO {MakeOval stroke} bdef
/PO {MakeOval fill} bdef
/PD {currentlinewidth 2 div 0 360 arc fill
   PDlw -1 eq not {PDlw w /PDlw -1 def} if} def
/FA {newpath tMatrix currentmatrix pop translate scale
  0 0 1 5 -2 roll arc tMatrix setmatrix stroke} bdef
/PA {newpath tMatrix currentmatrix pop	translate 0 0 moveto scale
  0 0 1 5 -2 roll arc closepath tMatrix setmatrix fill} bdef
/FAn {newpath tMatrix currentmatrix pop translate scale
  0 0 1 5 -2 roll arcn tMatrix setmatrix stroke} bdef
/PAn {newpath tMatrix currentmatrix pop translate 0 0 moveto scale
  0 0 1 5 -2 roll arcn closepath tMatrix setmatrix fill} bdef
/vradius 0 def /hradius 0 def /lry 0 def
/lrx 0 def /uly 0 def /ulx 0 def /rad 0 def
/MRR {/vradius xdef /hradius xdef /lry xdef /lrx xdef /uly xdef
  /ulx xdef newpath tMatrix currentmatrix pop ulx hradius add uly
  vradius add translate hradius vradius scale 0 0 1 180 270 arc 
  tMatrix setmatrix lrx hradius sub uly vradius add translate
  hradius vradius scale 0 0 1 270 360 arc tMatrix setmatrix
  lrx hradius sub lry vradius sub translate hradius vradius scale
  0 0 1 0 90 arc tMatrix setmatrix ulx hradius add lry vradius sub
  translate hradius vradius scale 0 0 1 90 180 arc tMatrix setmatrix
  closepath} bdef
/FRR {MRR stroke } bdef
/PRR {MRR fill } bdef
/MlrRR {/lry xdef /lrx xdef /uly xdef /ulx xdef /rad lry uly sub 2 div def
  newpath tMatrix currentmatrix pop ulx rad add uly rad add translate
  rad rad scale 0 0 1 90 270 arc tMatrix setmatrix lrx rad sub lry rad
  sub translate rad rad scale 0 0 1 270 90 arc tMatrix setmatrix
  closepath} bdef
/FlrRR {MlrRR stroke } bdef
/PlrRR {MlrRR fill } bdef
/MtbRR {/lry xdef /lrx xdef /uly xdef /ulx xdef /rad lrx ulx sub 2 div def
  newpath tMatrix currentmatrix pop ulx rad add uly rad add translate
  rad rad scale 0 0 1 180 360 arc tMatrix setmatrix lrx rad sub lry rad
  sub translate rad rad scale 0 0 1 0 180 arc tMatrix setmatrix
  closepath} bdef
/FtbRR {MtbRR stroke } bdef
/PtbRR {MtbRR fill } bdef
/stri 6 array def /dtri 6 array def
/smat 6 array def /dmat 6 array def
/tmat1 6 array def /tmat2 6 array def /dif 3 array def
/asub {/ind2 exch def /ind1 exch def dup dup
  ind1 get exch ind2 get sub exch } bdef
/tri_to_matrix {
  2 0 asub 3 1 asub 4 0 asub 5 1 asub
  dup 0 get exch 1 get 7 -1 roll astore } bdef
/compute_transform {
  dmat dtri tri_to_matrix tmat1 invertmatrix 
  smat stri tri_to_matrix tmat2 concatmatrix } bdef
/ds {stri astore pop} bdef
/dt {dtri astore pop} bdef
/db {2 copy /cols xdef /rows xdef mul dup 3 mul string
  currentfile 
  3 index 0 eq {/ASCIIHexDecode filter}
  {/ASCII85Decode filter 3 index 2 eq {/RunLengthDecode filter} if }
  ifelse exch readstring pop
  dup 0 3 index getinterval /rbmap xdef
  dup 2 index dup getinterval /gbmap xdef
  1 index dup 2 mul exch getinterval /bbmap xdef pop pop}bdef
/it {gs np dtri aload pop moveto lineto lineto cp c
  cols rows 8 compute_transform 
  rbmap gbmap bbmap true 3 colorimage gr}bdef
/il {newpath moveto lineto stroke}bdef
currentdict end def
%%EndProlog

%%BeginSetup
MathWorks begin

0 cap

end
%%EndSetup

%%Page: 1 1
%%BeginPageSetup
%%PageBoundingBox:    81   228   529   564
MathWorks begin
bpage
%%EndPageSetup

%%BeginObject: obj1
bplot

/dpi2point 12 def
portraitMode 0972 6768 csm

    0     0  5376  4023 rc
85 dict begin %Colortable dictionary
/c0 { 0.000000 0.000000 0.000000 sr} bdef
/c1 { 1.000000 1.000000 1.000000 sr} bdef
/c2 { 0.900000 0.000000 0.000000 sr} bdef
/c3 { 0.000000 0.820000 0.000000 sr} bdef
/c4 { 0.000000 0.000000 0.800000 sr} bdef
/c5 { 0.910000 0.820000 0.320000 sr} bdef
/c6 { 1.000000 0.260000 0.820000 sr} bdef
/c7 { 0.000000 0.820000 0.820000 sr} bdef
c0
1 j
1 sg
   0    0 5377 4024 rf
6 w
0 3278 4167 0 0 -3278 698 3580 4 MP
PP
-4167 0 0 3278 4167 0 0 -3278 698 3580 5 MP stroke
4 w
DO
SO
6 w
0 sg
 698 3580 mt 4865 3580 L
 698 3580 mt  698  302 L
 698 3580 mt  698 3538 L
%%IncludeResource: font Helvetica
/Helvetica /ISOLatin1Encoding 120 FMSR

 545 3725 mt 
(-0.2) s
1294 3580 mt 1294 3538 L
1261 3725 mt 
(0) s
1889 3580 mt 1889 3538 L
1806 3725 mt 
(0.2) s
2484 3580 mt 2484 3538 L
2401 3725 mt 
(0.4) s
3079 3580 mt 3079 3538 L
2996 3725 mt 
(0.6) s
3674 3580 mt 3674 3538 L
3591 3725 mt 
(0.8) s
4269 3580 mt 4269 3538 L
4236 3725 mt 
(1) s
4865 3580 mt 4865 3538 L
4782 3725 mt 
(1.2) s
 698 3580 mt  740 3580 L
 528 3624 mt 
(-2) s
 698 3111 mt  740 3111 L
 428 3155 mt 
(-1.5) s
 698 2643 mt  740 2643 L
 528 2687 mt 
(-1) s
 698 2175 mt  740 2175 L
 428 2219 mt 
(-0.5) s
 698 1706 mt  740 1706 L
 598 1750 mt 
(0) s
 698 1238 mt  740 1238 L
 498 1282 mt 
(0.5) s
 698  770 mt  740  770 L
 598  814 mt 
(1) s
 698  302 mt  740  302 L
 498  346 mt 
(1.5) s
gs 698 302 4168 3279 rc
/c8 { 0.000000 0.000000 1.000000 sr} bdef
c8
0 140 -318 0 0 -140 318 0 4109 1800 5 MP stroke
-339 0 0 -141 339 0 0 141 4091 1706 5 MP stroke
0 141 -362 0 0 -141 362 0 4065 1894 5 MP stroke
0 141 -384 0 0 -141 384 0 4031 1941 5 MP stroke
0 140 -407 0 0 -140 407 0 3990 1987 5 MP stroke
0 140 -429 0 0 -140 429 0 3942 2034 5 MP stroke
0 140 -451 0 0 -140 451 0 3886 2081 5 MP stroke
0 141 -473 0 0 -141 473 0 3823 2128 5 MP stroke
-496 0 0 -141 496 0 0 141 3752 2034 5 MP stroke
-518 0 0 -140 518 0 0 140 3674 2081 5 MP stroke
-540 0 0 -140 540 0 0 140 3589 2128 5 MP stroke
-562 0 0 -140 562 0 0 140 3496 2175 5 MP stroke
-585 0 0 -141 585 0 0 141 3395 2221 5 MP stroke
-608 0 0 -141 608 0 0 141 3287 2268 5 MP stroke
-630 0 0 -141 630 0 0 141 3172 2315 5 MP stroke
-652 0 0 -140 652 0 0 140 3049 2362 5 MP stroke
-674 0 0 -140 674 0 0 140 2919 2409 5 MP stroke
-697 0 0 -140 697 0 0 140 2781 2456 5 MP stroke
0 -141 719 0 0 141 -719 0 3355 2502 5 MP stroke
0 -141 741 0 0 141 -741 0 3225 2549 5 MP stroke
0 -141 763 0 0 141 -763 0 3087 2596 5 MP stroke
0 -140 785 0 0 140 -785 0 2942 2643 5 MP stroke
0 -140 808 0 0 140 -808 0 2790 2690 5 MP stroke
0 -140 830 0 0 140 -830 0 2630 2737 5 MP stroke
0 -141 853 0 0 141 -853 0 2463 2783 5 MP stroke
0 -141 875 0 0 141 -875 0 2288 2830 5 MP stroke
0 -141 811 0 0 141 -811 0 2105 2877 5 MP stroke
0 -140 622 0 0 140 -622 0 1916 2924 5 MP stroke
0 -140 425 0 0 140 -425 0 1719 2971 5 MP stroke
0 -140 220 0 0 140 -220 0 1514 3018 5 MP stroke
0 -141 8 0 0 141 -8 0 1302 3064 5 MP stroke
162 0 0 132 -162 0 0 -132 1456 800 5 MP stroke
175 0 0 132 -175 0 0 -132 1610 847 5 MP stroke
181 0 0 132 -181 0 0 -132 1756 894 5 MP stroke
0 131 -187 0 0 -131 187 0 1708 940 5 MP stroke
0 131 -193 0 0 -131 193 0 1833 987 5 MP stroke
0 132 -199 0 0 -132 199 0 1951 1034 5 MP stroke
0 132 -205 0 0 -132 205 0 2062 1081 5 MP stroke
0 132 -211 0 0 -132 211 0 2165 1128 5 MP stroke
0 132 -218 0 0 -132 218 0 2260 1175 5 MP stroke
0 131 -223 0 0 -131 223 0 2349 1221 5 MP stroke
0 131 -230 0 0 -131 230 0 2429 1268 5 MP stroke
0 132 -235 0 0 -132 235 0 2503 1315 5 MP stroke
0 132 -241 0 0 -132 241 0 2569 1362 5 MP stroke
0 132 -247 0 0 -132 247 0 2627 1409 5 MP stroke
0 132 -253 0 0 -132 253 0 2678 1456 5 MP stroke
0 131 -259 0 0 -131 259 0 2722 1502 5 MP stroke
0 132 -265 0 0 -132 265 0 2758 1549 5 MP stroke
0 132 -272 0 0 -132 272 0 2786 1596 5 MP stroke
0 132 -277 0 0 -132 277 0 2808 1643 5 MP stroke
0 132 -284 0 0 -132 284 0 2821 1690 5 MP stroke
0 132 -289 0 0 -132 289 0 2828 1737 5 MP stroke
-299 0 0 -131 299 0 0 131 2825 1652 5 MP stroke
-320 0 0 -132 320 0 0 132 2809 1698 5 MP stroke
-341 0 0 -132 341 0 0 132 2786 1745 5 MP stroke
-362 0 0 -132 362 0 0 132 2755 1792 5 MP stroke
-383 0 0 -132 383 0 0 132 2716 1839 5 MP stroke
-404 0 0 -131 404 0 0 131 2671 1886 5 MP stroke
-424 0 0 -131 424 0 0 131 2618 1933 5 MP stroke
-446 0 0 -132 446 0 0 132 2557 1979 5 MP stroke
-467 0 0 -132 467 0 0 132 2489 2026 5 MP stroke
-487 0 0 -132 487 0 0 132 2414 2073 5 MP stroke
-508 0 0 -132 508 0 0 132 2331 2120 5 MP stroke
-530 0 0 -131 530 0 0 131 2240 2167 5 MP stroke
-550 0 0 -131 550 0 0 131 2143 2214 5 MP stroke
-572 0 0 -132 572 0 0 132 2037 2260 5 MP stroke
-592 0 0 -132 592 0 0 132 1925 2307 5 MP stroke
-613 0 0 -132 613 0 0 132 1805 2354 5 MP stroke
-634 0 0 -132 634 0 0 132 1677 2401 5 MP stroke
-655 0 0 -131 655 0 0 131 1542 2448 5 MP stroke
-676 0 0 -131 676 0 0 131 1400 2495 5 MP stroke
0 -132 653 0 0 132 -653 0 1947 2541 5 MP stroke
0 -132 516 0 0 132 -516 0 1810 2588 5 MP stroke
0 -132 372 0 0 132 -372 0 1666 2635 5 MP stroke
0 -132 221 0 0 132 -221 0 1515 2682 5 MP stroke
0 -131 62 0 0 131 -62 0 1356 2729 5 MP stroke
0 131 -122 0 0 -131 122 0 1294 1048 5 MP stroke
0 131 -136 0 0 -131 136 0 1395 1095 5 MP stroke
0 132 -141 0 0 -132 141 0 1496 1142 5 MP stroke
0 132 -147 0 0 -132 147 0 1590 1189 5 MP stroke
0 131 -154 0 0 -131 154 0 1675 1235 5 MP stroke
0 131 -159 0 0 -131 159 0 1754 1282 5 MP stroke
0 131 -165 0 0 -131 165 0 1825 1329 5 MP stroke
0 131 -171 0 0 -131 171 0 1889 1376 5 MP stroke
0 132 -177 0 0 -132 177 0 1945 1423 5 MP stroke
0 132 -183 0 0 -132 183 0 1994 1470 5 MP stroke
0 131 -189 0 0 -131 189 0 2035 1516 5 MP stroke
0 131 -195 0 0 -131 195 0 2069 1563 5 MP stroke
0 131 -201 0 0 -131 201 0 2096 1610 5 MP stroke
0 131 -207 0 0 -131 207 0 2115 1657 5 MP stroke
0 132 -213 0 0 -132 213 0 2126 1704 5 MP stroke
0 131 -219 0 0 -131 219 0 2130 1750 5 MP stroke
-233 0 0 -131 233 0 0 131 2123 1666 5 MP stroke
-254 0 0 -131 254 0 0 131 2105 1713 5 MP stroke
-275 0 0 -131 275 0 0 131 2079 1760 5 MP stroke
-296 0 0 -131 296 0 0 131 2046 1807 5 MP stroke
-316 0 0 -132 316 0 0 132 2006 1853 5 MP stroke
-337 0 0 -131 337 0 0 131 1958 1900 5 MP stroke
-359 0 0 -131 359 0 0 131 1902 1947 5 MP stroke
-379 0 0 -131 379 0 0 131 1840 1994 5 MP stroke
-400 0 0 -131 400 0 0 131 1769 2041 5 MP stroke
-420 0 0 -132 420 0 0 132 1692 2087 5 MP stroke
-442 0 0 -132 442 0 0 132 1606 2134 5 MP stroke
-462 0 0 -131 462 0 0 131 1514 2181 5 MP stroke
-483 0 0 -131 483 0 0 131 1414 2228 5 MP stroke
-505 0 0 -131 505 0 0 131 1306 2275 5 MP stroke
-423 0 0 -131 423 0 0 131 1294 2322 5 MP stroke
-321 0 0 -132 321 0 0 132 1294 2368 5 MP stroke
-212 0 0 -132 212 0 0 132 1294 2415 5 MP stroke
0 124 -92 0 0 -124 92 0 1294 1231 5 MP stroke
1 sg
0 93 -297 0 0 -93 297 0 4121 1753 5 MP
PP
0 sg
0 0 0 93 -297 0 0 -93 297 0 4121 1753 6 MP stroke
-200 44 -193 44 -187 44 -180 44 -446 117 -400 117 -353 117 -306 117 
-260 118 -214 117 -167 117 -120 117 -43 59 -31 58 -20 59 -8 59 
0 24 1 11 2 12 0 7 1 2 4418 1660 22 MP stroke
-219 66 -205 66 -191 65 -176 66 -198 82 -176 82 -153 82 -131 82 
-107 82 -85 82 -62 82 -39 82 -17 82 7 82 29 81 52 82 
74 82 98 82 120 82 143 82 166 82 189 82 211 82 234 82 
83 27 84 27 88 27 89 27 19 6 18 5 18 5 19 6 
4 1 3 1 4 1 4 1 1 0 1 1 1 0 1294 688 40 MP stroke
-35 22 -33 22 -32 22 -30 22 -39 31 -36 31 -33 31 -29 31 
-27 31 -23 31 -19 31 -17 31 -13 31 -10 31 -7 31 -3 31 
0 31 3 31 6 31 10 31 13 31 16 31 20 31 22 31 
26 31 30 31 32 31 36 31 39 31 42 31 46 31 49 31 
52 31 55 31 59 31 62 31 65 31 69 31 71 32 75 31 
18 7 18 7 18 7 19 7 4 2 3 1 4 2 4 1 
1 0 1 1 1 0 -1 0 1295 943 53 MP stroke
-94 20 -94 21 -92 21 -90 21 -483 117 -437 117 -390 117 -344 117 
-297 117 -251 117 -204 117 -157 117 -62 59 -50 59 -38 59 -27 58 
-4 12 -3 12 -3 12 -2 11 -1 3 0 2 -1 2 0 3 
4418 1753 25 MP stroke
-181 54 -172 54 -162 54 -152 54 -217 84 -194 85 -169 84 -145 84 
-121 85 -97 84 -73 84 -48 85 -25 84 0 84 23 84 48 85 
72 84 96 84 120 85 144 84 168 84 192 84 217 85 240 84 
83 27 84 27 88 27 89 27 19 6 18 5 18 5 19 6 
4 1 3 1 4 1 4 1 1 0 1 1 1 0 1294 688 40 MP stroke
-46 24 -44 25 -42 24 -41 24 -51 34 -48 33 -44 33 -41 34 
-36 33 -33 34 -29 33 -25 33 -22 34 -17 33 -14 33 -10 34 
-7 33 -2 33 1 34 5 33 9 34 12 33 16 33 20 34 
24 33 28 33 31 34 36 33 38 34 43 33 47 33 50 34 
54 33 58 33 62 34 65 33 69 33 73 34 77 33 80 34 
18 7 18 7 18 7 19 7 4 2 3 1 4 2 4 1 
1 0 1 1 1 0 -1 0 1295 943 53 MP stroke
-18 4 -18 4 -18 4 -18 5 -484 117 -436 117 -390 117 -344 117 
-297 117 -251 117 -204 117 -158 117 -62 59 -50 59 -38 59 -26 58 
-4 12 -3 12 -3 12 -3 11 0 3 -1 2 0 2 -1 3 
4121 1753 25 MP stroke
-62 19 -61 19 -60 19 -59 19 -247 86 -223 86 -197 86 -173 86 
-147 86 -122 86 -98 86 -72 86 -47 86 -22 86 3 86 28 86 
53 86 78 86 104 86 128 86 153 86 179 86 203 85 229 86 
81 29 84 28 86 29 89 28 19 6 18 6 18 5 19 6 
4 1 3 1 4 1 4 1 1 1 1 0 1 0 -1 0 
1295 738 41 MP stroke
-39 16 -39 17 -38 16 -37 16 -82 38 -77 37 -72 38 -68 37 
-63 38 -57 37 -54 38 -48 37 -43 38 -39 37 -34 38 -30 37 
-24 38 -20 37 -15 38 -10 37 -5 38 -1 37 4 38 9 37 
14 38 18 37 23 38 28 37 33 38 38 37 42 38 47 37 
52 38 57 37 61 38 66 37 71 38 76 37 80 38 86 37 
17 8 18 8 19 7 18 8 4 1 3 2 4 1 4 2 
1 0 1 1 1 0 1294 980 52 MP stroke
1 0 1 1 1 1 1 1 2 1 2 1 2 1 2 1 
2 1 2 2 2 1 2 1 2 1 2 1 2 1 2 2 
2 1 2 1 3 1 2 1 2 1 2 2 2 1 2 1 
2 1 2 1 2 1 2 2 2 1 2 1 3 1 2 1 
2 1 2 2 2 1 2 1 2 1 2 1 3 2 2 1 
1 0 1 1 1 0 -1 0 1295 1162 45 MP stroke
-119 27 -117 28 -115 28 -112 27 -446 117 -399 117 -353 117 -307 117 
-260 118 -213 117 -167 117 -121 117 -43 59 -31 58 -19 59 -8 59 
0 24 1 11 1 12 0 2 1 3 0 4 4121 1660 23 MP stroke
-100 31 -96 31 -94 30 -90 31 -228 84 -204 84 -180 83 -157 84 
-133 83 -110 84 -85 84 -62 83 -38 84 -15 83 9 84 33 84 
57 83 80 84 105 83 127 84 152 84 175 83 199 84 223 83 
81 29 84 28 86 29 89 28 19 6 18 6 18 5 19 6 
4 1 3 1 4 1 4 1 1 1 1 0 1 0 -1 0 
1295 738 41 MP stroke
-59 26 -55 25 -54 26 -52 26 -66 35 -63 35 -58 35 -54 35 
-50 35 -46 36 -42 35 -37 35 -33 35 -29 35 -25 35 -20 36 
-17 35 -12 35 -8 35 -4 35 0 35 5 36 9 35 13 35 
17 35 21 35 26 35 30 36 33 35 39 35 42 35 46 35 
51 35 55 35 59 36 63 35 68 35 72 35 75 35 81 35 
17 8 18 8 19 7 18 8 4 1 3 2 4 1 4 2 
1 0 1 1 1 0 1294 980 52 MP stroke
-119 27 -117 28 -115 28 -112 27 -446 117 -399 117 -353 117 -307 117 
-260 118 -213 117 -167 117 -121 117 -43 59 -31 58 -19 59 -8 59 
0 24 1 11 1 12 0 2 1 3 0 4 4121 1660 23 MP stroke
-100 31 -96 31 -94 30 -90 31 -228 84 -204 84 -180 83 -157 84 
-133 83 -110 84 -85 84 -62 83 -38 84 -15 83 9 84 33 84 
57 83 80 84 105 83 127 84 152 84 175 83 199 84 223 83 
81 29 84 28 86 29 89 28 19 6 18 6 18 5 19 6 
4 1 3 1 4 1 4 1 1 1 1 0 1 0 -1 0 
1295 738 41 MP stroke
-59 26 -55 25 -54 26 -52 26 -66 35 -63 35 -58 35 -54 35 
-50 35 -46 36 -42 35 -37 35 -33 35 -29 35 -25 35 -20 36 
-17 35 -12 35 -8 35 -4 35 0 35 5 36 9 35 13 35 
17 35 21 35 26 35 30 36 33 35 39 35 42 35 46 35 
51 35 55 35 59 36 63 35 68 35 72 35 75 35 81 35 
17 8 18 8 19 7 18 8 4 1 3 2 4 1 4 2 
1 0 1 1 1 0 1294 980 52 MP stroke
-290 68 -276 68 -260 67 -244 68 -386 117 -340 117 -293 117 -246 117 
-199 117 -154 116 -107 116 -61 117 -7 23 -5 23 -3 24 -1 23 
0 21 1 1 4165 1688 19 MP stroke
-105 32 -102 32 -98 33 -95 32 -229 84 -206 84 -181 84 -158 84 
-133 84 -110 85 -85 84 -62 84 -38 84 -13 84 10 84 34 84 
59 84 82 84 106 84 130 84 155 84 178 84 202 85 226 84 
81 28 84 28 87 28 89 28 19 6 18 6 18 5 19 6 
4 1 3 1 4 1 4 2 1 0 1 0 1 0 -1 0 
1295 731 41 MP stroke
-59 25 -56 26 -54 26 -52 26 -66 35 -63 36 -58 35 -54 35 
-50 36 -46 35 -41 35 -38 35 -33 36 -28 35 -25 35 -20 35 
-16 36 -12 35 -8 35 -3 36 1 35 5 35 9 35 13 36 
18 35 22 35 26 35 30 36 35 35 39 35 43 36 47 35 
51 35 56 35 60 36 64 35 68 35 73 36 76 35 81 35 
18 8 18 7 19 8 18 7 4 2 3 1 4 2 4 1 
1 0 1 1 1 0 -1 0 1295 975 53 MP stroke
-223 51 -215 51 -205 51 -197 51 -419 117 -372 117 -326 117 -279 117 
-233 117 -186 117 -140 117 -93 117 -23 43 -16 42 -10 42 -4 43 
0 25 1 9 0 3 1 2 0 1 4233 1673 22 MP stroke
-139 42 -133 43 -127 42 -121 43 -219 83 -196 83 -172 84 -149 83 
-125 83 -102 84 -78 83 -54 83 -31 84 -8 83 16 83 40 83 
63 84 87 83 110 83 134 84 157 83 181 83 204 84 228 83 
82 28 84 28 87 28 89 27 19 6 18 6 18 5 19 6 
4 1 3 1 4 1 4 1 1 0 1 1 1 0 1294 719 40 MP stroke
-51 25 -48 25 -46 24 -45 25 -57 34 -54 34 -50 34 -46 34 
-42 34 -38 34 -34 33 -30 34 -27 34 -22 34 -19 34 -15 34 
-10 34 -7 34 -3 34 1 34 5 34 8 34 13 34 17 33 
20 34 24 34 29 34 32 34 36 34 40 34 44 34 48 34 
51 34 56 34 59 34 64 34 67 33 71 34 75 34 79 34 
18 8 18 7 19 8 18 7 4 1 3 2 4 1 4 2 
1 0 1 1 1 0 1294 966 52 MP stroke
-163 36 -160 37 -155 36 -150 36 -454 117 -408 117 -361 117 -315 117 
-269 117 -222 118 -175 117 -129 117 -44 55 -35 55 -23 55 -14 55 
-2 11 -1 11 0 11 -1 11 0 10 4375 1698 22 MP stroke
-185 55 -175 56 -164 56 -154 55 -211 83 -187 83 -164 84 -140 83 
-117 83 -94 83 -69 83 -47 83 -23 84 0 83 24 83 48 83 
70 83 95 83 117 83 142 84 164 83 188 83 212 83 235 83 
82 28 85 27 87 27 89 27 19 6 18 5 18 6 19 5 
4 1 3 1 4 1 4 1 1 1 1 0 1 0 1294 696 40 MP stroke
-42 24 -41 23 -39 24 -37 23 -49 33 -44 32 -41 33 -38 33 
-34 32 -30 33 -26 33 -23 32 -20 33 -15 32 -13 33 -8 33 
-5 32 -1 33 2 33 6 32 9 33 13 32 17 33 20 33 
24 32 28 33 31 32 35 33 38 33 42 32 46 33 49 33 
53 32 56 33 60 32 64 33 67 33 71 32 74 33 78 32 
18 8 18 7 18 7 19 8 4 1 3 1 4 2 4 1 
1 1 1 0 1 1 1294 948 52 MP stroke
-212 48 -204 48 -197 48 -189 48 -426 117 -380 117 -334 117 -287 118 
-240 117 -194 117 -148 117 -101 117 -27 47 -20 47 -13 47 -5 47 
0 9 1 10 0 9 1 10 0 5 1 2 4268 1669 23 MP stroke
-155 47 -147 47 -140 47 -132 47 -215 83 -192 83 -169 83 -144 83 
-122 83 -98 83 -75 84 -51 83 -29 83 -4 83 19 83 42 83 
65 83 89 83 112 83 136 83 159 83 182 83 206 83 229 83 
82 27 84 28 87 28 89 28 19 5 18 6 18 5 19 6 
4 1 3 1 4 1 4 1 1 0 1 1 1 0 1294 713 40 MP stroke
-47 25 -45 24 -43 24 -41 24 -54 33 -50 34 -46 33 -43 33 
-38 34 -35 33 -31 33 -28 34 -23 33 -20 33 -16 34 -12 33 
-9 33 -5 34 0 33 2 33 7 34 10 33 14 33 18 34 
22 33 25 33 30 34 33 33 36 33 41 34 44 33 48 33 
52 34 56 33 59 33 63 34 67 33 71 33 74 34 78 33 
18 7 18 8 19 7 18 8 4 1 3 1 4 2 4 1 
1 1 1 0 1 1 1294 961 52 MP stroke
-508 116 -462 117 -417 116 -370 116 -327 118 -279 117 -234 117 -187 117 
-106 85 -83 85 -57 85 -33 86 -3 17 -3 17 -2 17 0 33 
4365 1693 17 MP stroke
-183 55 -173 56 -163 55 -153 55 -210 83 -188 83 -164 83 -140 83 
-117 83 -93 83 -71 83 -46 83 -24 84 0 83 24 83 47 83 
70 83 94 83 117 83 141 83 164 83 188 83 211 83 234 84 
82 27 85 27 87 27 89 28 19 5 18 6 18 5 19 6 
4 1 3 1 4 1 4 1 1 0 1 1 1 0 1294 697 40 MP stroke
-43 23 -41 24 -39 23 -37 24 -49 32 -44 33 -42 33 -37 32 
-34 33 -31 33 -26 32 -23 33 -20 32 -16 33 -12 33 -9 32 
-5 33 -2 33 3 32 5 33 10 32 13 33 16 33 20 32 
24 33 28 33 31 32 34 33 38 32 42 33 46 33 49 32 
52 33 57 33 60 32 63 33 67 32 71 33 74 33 78 32 
18 8 18 7 18 7 19 7 4 2 3 1 4 2 4 1 
1 0 1 1 1 0 -1 0 1295 950 53 MP stroke
gr


end %%Color Dict

eplot
%%EndObject

epage
end

showpage

%%Trailer
%%EOF
